TD introduction au tidyverse
…
Avec la fonction arrange(), triez les donnes par ordre taxonomique (order) puis par temps de sommeil croissant (sleep_total)

## # A tibble: 83 x 11
##    name  genus vore  order conservation sleep_total sleep_rem sleep_cycle
##    <chr> <chr> <chr> <chr> <chr>              <dbl>     <dbl>       <dbl>
##  1 Tenr Tenr omni  Afro <NA>                15.6       2.3      NA    
##  2 Pig   Sus   omni  Arti domesticated         9.1       2.4       0.5  
##  3 Goat  Capri herbi Arti lc                   5.3       0.6      NA    
##  4 Cow   Bos   herbi Arti domesticated         4         0.7       0.667
##  5 Sheep Ovis  herbi Arti domesticated         3.8       0.6      NA    
##  6 Roe  Capr herbi Arti lc                   3        NA        NA    
##  7 Gira Gira herbi Arti cd                   1.9       0.4      NA    
##  8 Tiger Pant carni Carn en                  15.8      NA        NA    
##  9 Lion  Pant carni Carn vu                  13.5      NA        NA    
## 10 Dome Felis carni Carn domesticated        12.5       3.2       0.417
## #  with 73 more rows, and 3 more variables: awake <dbl>, brainwt <dbl>,
## #   bodywt <dbl>

Avec la fonction select(), slectionnez les colonnes qui commencent par sleep

## # A tibble: 83 x 3
##    sleep_total sleep_rem sleep_cycle
##          <dbl>     <dbl>       <dbl>
##  1        12.1      NA        NA    
##  2        17         1.8      NA    
##  3        14.4       2.4      NA    
##  4        14.9       2.3       0.133
##  5         4         0.7       0.667
##  6        14.4       2.2       0.767
##  7         8.7       1.4       0.383
##  8         7        NA        NA    
##  9        10.1       2.9       0.333
## 10         3        NA        NA    
## #  with 73 more rows
…
## # A tibble: 8 x 3
##   name                   order           sleep_total
##   <chr>                  <chr>                 <dbl>
## 1 Big brown bat          Chiroptera             19.7
## 2 Little brown bat       Chiroptera             19.9
## 3 Long-nosed armadillo   Cingulata              17.4
## 4 Giant armadillo        Cingulata              18.1
## 5 North American Opossum Didelphimorphia        18  
## 6 Thick-tailed opposum   Didelphimorphia        19.4
## 7 Owl monkey             Primates               17  
## 8 Arctic ground squirrel Rodentia               16.6

Avec la fonction mutate(), crez une nouvelle variable rem_proportion qui calcule la proportion de sommeil paradoxal (sleep_rem) par rapport au sommeil total (sleep_total)

## # A tibble: 83 x 4
##    name                       order        sleep_total rem_proportion
##    <chr>                      <chr>              <dbl>          <dbl>
##  1 Cheetah                    Carnivora           12.1         NA    
##  2 Owl monkey                 Primates            17            0.106
##  3 Mountain beaver            Rodentia            14.4          0.167
##  4 Greater short-tailed shrew Soricomorpha        14.9          0.154
##  5 Cow                        Artiodactyla         4            0.175
##  6 Three-toed sloth           Pilosa              14.4          0.153
##  7 Northern fur seal          Carnivora            8.7          0.161
##  8 Vesper mouse               Rodentia             7           NA    
##  9 Dog                        Carnivora           10.1          0.287
## 10 Roe deer                   Artiodactyla         3           NA    
## #  with 73 more rows
…
